{
  "type": "postgres",
  "host": "postgres",
  "port": 5432,
  "username": "pgadmin",
  "password": "password",
  "database": "together_local",
  "entities": [
    "src/**/*.entity.ts",
    "dist/src/**/*.entity.js"
  ],
  "migrations": [
    "migration/*{.ts,.js}"
  ],
  "cli": {
    "migrationsDir": "migration"
  },
  "synchronize": false
}